%!PS-Adobe-3.0 EPSF-3.0
%%Creator: cairo 1.15.10 (http://cairographics.org)
%%CreationDate: Tue May 19 15:13:03 2020
%%Pages: 1
%%DocumentData: Clean7Bit
%%LanguageLevel: 2
%%BoundingBox: 138 623 511 732
%%EndComments
%%BeginProlog
50 dict begin
/q { gsave } bind def
/Q { grestore } bind def
/cm { 6 array astore concat } bind def
/w { setlinewidth } bind def
/J { setlinecap } bind def
/j { setlinejoin } bind def
/M { setmiterlimit } bind def
/d { setdash } bind def
/m { moveto } bind def
/l { lineto } bind def
/c { curveto } bind def
/h { closepath } bind def
/re { exch dup neg 3 1 roll 5 3 roll moveto 0 rlineto
      0 exch rlineto 0 rlineto closepath } bind def
/S { stroke } bind def
/f { fill } bind def
/f* { eofill } bind def
/n { newpath } bind def
/W { clip } bind def
/W* { eoclip } bind def
/BT { } bind def
/ET { } bind def
/BDC { mark 3 1 roll /BDC pdfmark } bind def
/EMC { mark /EMC pdfmark } bind def
/cairo_store_point { /cairo_point_y exch def /cairo_point_x exch def } def
/Tj { show currentpoint cairo_store_point } bind def
/TJ {
  {
    dup
    type /stringtype eq
    { show } { -0.001 mul 0 cairo_font_matrix dtransform rmoveto } ifelse
  } forall
  currentpoint cairo_store_point
} bind def
/cairo_selectfont { cairo_font_matrix aload pop pop pop 0 0 6 array astore
    cairo_font exch selectfont cairo_point_x cairo_point_y moveto } bind def
/Tf { pop /cairo_font exch def /cairo_font_matrix where
      { pop cairo_selectfont } if } bind def
/Td { matrix translate cairo_font_matrix matrix concatmatrix dup
      /cairo_font_matrix exch def dup 4 get exch 5 get cairo_store_point
      /cairo_font where { pop cairo_selectfont } if } bind def
/Tm { 2 copy 8 2 roll 6 array astore /cairo_font_matrix exch def
      cairo_store_point /cairo_font where { pop cairo_selectfont } if } bind def
/g { setgray } bind def
/rg { setrgbcolor } bind def
/d1 { setcachedevice } bind def
/cairo_data_source {
  CairoDataIndex CairoData length lt
    { CairoData CairoDataIndex get /CairoDataIndex CairoDataIndex 1 add def }
    { () } ifelse
} def
/cairo_flush_ascii85_file { cairo_ascii85_file status { cairo_ascii85_file flushfile } if } def
/cairo_image { image cairo_flush_ascii85_file } def
/cairo_imagemask { imagemask cairo_flush_ascii85_file } def
%%EndProlog
%%BeginSetup
%%EndSetup
%%Page: 1 1
%%BeginPageSetup
%%PageBoundingBox: 138 623 511 732
%%EndPageSetup
q 138 623 373 109 rectclip
1 0 0 -1 0 842 cm q
0 g
0.650105 w
0 J
0 j
[] 0.0 d
4 M q 1 0 0 1 0 0 cm
141.73 218.461 m 141.73 111.969 l S Q
141.73 118.469 m 144.332 121.07 l 141.73 111.969 l 139.133 121.07 l h
141.73 118.469 m f*
0.693445 w
q 0 1 -1 0 0 0 cm
118.469 -141.73 m 121.07 -144.332 l 111.969 -141.73 l 121.07 -139.133 l
 h
118.469 -141.73 m S Q
0.75 w
q 1 0 0 1 0 0 cm
170.078 197.008 m 184.254 197.008 l S Q
q 1 0 0 1 0 0 cm
191.34 197.008 m 205.512 197.008 l S Q
q 1 0 0 1 0 0 cm
212.598 197.008 m 226.773 197.008 l S Q
q 1 0 0 1 0 0 cm
177.164 126.141 m 191.34 126.141 l S Q
q 1 0 0 1 0 0 cm
205.512 126.141 m 219.684 126.141 l S Q
q 1 0 0 1 0 0 cm
269.293 197.008 m 283.465 197.008 l S Q
q 1 0 0 1 0 0 cm
290.551 197.008 m 304.723 197.008 l S Q
q 1 0 0 1 0 0 cm
311.812 197.008 m 325.984 197.008 l S Q
q 1 0 0 1 0 0 cm
460.629 147.402 m 474.805 147.402 l S Q
q 1 0 0 1 0 0 cm
488.977 147.402 m 503.148 147.402 l S Q
q 1 0 0 1 0 0 cm
233.859 168.66 m 262.203 168.66 l S Q
258.281 166.848 m 263.199 168.652 l 258.281 170.461 l 259.066 169.395 259.062
 167.934 258.281 166.848 c h
258.281 166.848 m f*
0.28125 w
1 j
q -1 0 0 -1 0 0 cm
-258.281 -166.848 m -263.199 -168.652 l -258.281 -170.461 l -259.066 -169.395
 -259.062 -167.934 -258.281 -166.848 c h
-258.281 -166.848 m S Q
0.732317 w
0 j
q 1 0 0 1 0 0 cm
219.684 189.922 m 219.684 204.094 l S Q
218.801 191.332 m 219.68 188.93 l 220.562 191.332 l 220.043 190.949 219.328
 190.949 218.801 191.332 c h
218.801 191.332 m f*
0.137309 w
1 j
q 0 1 -1 0 0 0 cm
191.332 -218.801 m 188.93 -219.68 l 191.332 -220.562 l 190.949 -220.043
 190.949 -219.328 191.332 -218.801 c h
191.332 -218.801 m S Q
0.732317 w
0 j
q 1 0 0 1 0 0 cm
198.426 189.922 m 198.426 204.094 l S Q
197.539 191.332 m 198.422 188.93 l 199.305 191.332 l 198.785 190.949 198.07
 190.949 197.539 191.332 c h
197.539 191.332 m f*
0.137309 w
1 j
q 0 1 -1 0 0 0 cm
191.332 -197.539 m 188.93 -198.422 l 191.332 -199.305 l 190.949 -198.785
 190.949 -198.07 191.332 -197.539 c h
191.332 -197.539 m S Q
0.732317 w
0 j
q 1 0 0 1 0 0 cm
177.164 189.922 m 177.164 204.094 l S Q
176.277 191.332 m 177.16 188.93 l 178.043 191.332 l 177.523 190.949 176.809
 190.949 176.277 191.332 c h
176.277 191.332 m f*
0.137309 w
1 j
q 0 1 -1 0 0 0 cm
191.332 -176.277 m 188.93 -177.16 l 191.332 -178.043 l 190.949 -177.523
 190.949 -176.809 191.332 -176.277 c h
191.332 -176.277 m S Q
0 0 1 rg
0.310989 w
0 j
q -1 -0.93239 -0.93239 1 0 0 cm
-204.734 -9.259 m -204.734 -9.259 -202.308 -11.685 -199.88 -9.257 c -197.455
 -6.831 -195.029 -9.257 -195.029 -9.257 c S Q
q -1 -0.93239 -0.93239 1 0 0 cm
-195.029 -9.257 m -195.029 -9.257 -192.603 -11.683 -190.177 -9.257 c -187.752
 -6.831 -185.324 -9.259 -185.324 -9.259 c S Q
q -1 -0.93239 -0.93239 1 0 0 cm
-185.324 -9.259 m -185.324 -9.259 -182.898 -11.685 -180.473 -9.259 c -178.045
 -6.831 -175.621 -9.259 -175.621 -9.259 c S Q
q -1 -0.93239 -0.93239 1 0 0 cm
-175.621 -9.259 m -175.621 -9.259 -173.195 -11.685 -170.767 -9.257 c -168.342
 -6.831 -165.916 -9.257 -165.916 -9.257 c S Q
q -1 -0.93239 -0.93239 1 0 0 cm
-165.916 -9.257 m -165.916 -9.257 -163.488 -11.685 -161.062 -9.259 c -158.637
 -6.833 -156.211 -9.259 -156.211 -9.259 c S Q
0 g
0.732317 w
q 1 0 0 1 0 0 cm
297.637 189.922 m 297.637 204.094 l S Q
296.75 191.332 m 297.633 188.93 l 298.516 191.332 l 297.996 190.949 297.281
 190.949 296.75 191.332 c h
296.75 191.332 m f*
0.137309 w
1 j
q 0 1 -1 0 0 0 cm
191.332 -296.75 m 188.93 -297.633 l 191.332 -298.516 l 190.949 -297.996
 190.949 -297.281 191.332 -296.75 c h
191.332 -296.75 m S Q
0.732317 w
0 j
q 1 0 0 1 0 0 cm
276.379 189.922 m 276.379 204.094 l S Q
275.492 191.332 m 276.375 188.93 l 277.258 191.332 l 276.734 190.949 276.023
 190.949 275.492 191.332 c h
275.492 191.332 m f*
0.137309 w
1 j
q 0 1 -1 0 0 0 cm
191.332 -275.492 m 188.93 -276.375 l 191.332 -277.258 l 190.949 -276.734
 190.949 -276.023 191.332 -275.492 c h
191.332 -275.492 m S Q
1 0 0 rg
0.732317 w
0 j
q 1 0 0 1 0 0 cm
496.062 140.316 m 496.062 154.488 l S Q
495.176 141.727 m 496.059 139.324 l 496.941 141.727 l 496.422 141.34 495.707
 141.344 495.176 141.727 c h
495.176 141.727 m f*
0.137309 w
1 j
q 0 1 -1 0 0 0 cm
141.727 -495.176 m 139.324 -496.059 l 141.727 -496.941 l 141.34 -496.422
 141.344 -495.707 141.727 -495.176 c h
141.727 -495.176 m S Q
0.708661 w
0 j
q 1 0 0 1 0 0 cm
222.504 192.602 m 222.504 192.602 228.363 177.176 228.363 162.168 c 228.363
 147.156 215.805 129.879 215.805 129.879 c S Q
216.598 133.887 m 215.246 129.125 l 219.359 131.879 l 218.109 131.871 216.996
 132.688 216.598 133.887 c h
216.598 133.887 m f*
0.214946 w
1 j
q 0.727015 1 -1 0.727015 0 0 cm
190.61 -78.022 m 186.852 -79.402 l 190.61 -80.783 l 190.01 -79.969 190.015
 -78.853 190.61 -78.022 c h
190.61 -78.022 m S Q
0 0 1 rg
215.148 184.098 m 213.426 183.098 l 211.699 182.094 l 215.16 180.109 l 
215.156 182.102 l h
215.148 184.098 m f
0.0799041 w
0 j
q 1 -0.574236 0.574236 1 0 0 cm
82.296 231.355 m 81.432 229.859 l 80.568 228.359 l 84.027 228.361 l 83.164
 229.857 l h
82.296 231.355 m S Q
164.414 128.773 m 164.477 128.941 l 164.547 129.109 l 164.676 129.465 l
 164.809 129.824 l 165.074 130.566 l 165.203 130.93 l 165.391 131.469 l 
165.453 131.641 l 165.508 131.809 l 165.57 131.973 l 165.625 132.129 l 165.68
 132.281 l 165.734 132.43 l 165.785 132.57 l 165.836 132.699 l 165.883 132.824
 l 165.926 132.941 l 165.969 133.051 l 166.008 133.148 l 166.051 133.234
 l 166.082 133.312 l 166.117 133.379 l 166.148 133.434 l 166.172 133.473
 l 166.441 133.844 166.605 133.844 167.062 133.844 c 167.426 133.844 l 167.594
 133.824 167.613 133.723 167.613 133.676 c 167.613 133.629 167.578 133.59
 167.527 133.52 c 167.363 133.34 167.258 133.09 167.145 132.754 c 163.734
 123.238 l 163.379 122.266 162.473 122.047 161.691 122.047 c 161.609 122.047
 161.387 122.047 161.387 122.23 c 161.387 122.367 161.523 122.398 161.539
 122.398 c 162.09 122.5 162.207 122.598 162.625 123.734 c 164.246 128.285
 l 159.629 132.871 l 159.43 133.07 159.332 133.176 159.332 133.391 c 159.332
 133.676 159.566 133.871 159.836 133.871 c 160.102 133.871 160.246 133.688
 160.387 133.52 c h
164.414 128.773 m f*
0 g
146.445 121.383 m 146.445 121.488 l 146.441 121.535 l 146.441 121.586 l
 146.43 121.715 l 146.418 121.75 l 146.41 121.789 l 146.398 121.824 l 146.367
 121.887 l 146.328 121.941 l 146.301 121.969 l 146.273 121.988 l 146.238
 122.012 l 146.199 122.031 l 146.18 122.039 l 146.16 122.051 l 146.137 122.055
 l 146.113 122.066 l 146.09 122.074 l 146.066 122.078 l 146.039 122.086 
l 146.008 122.094 l 145.98 122.098 l 145.918 122.113 l 145.883 122.113 l
 145.852 122.117 l 145.816 122.125 l 145.781 122.129 l 145.738 122.133 l
 145.699 122.133 l 145.57 122.145 l 145.523 122.145 l 145.473 122.148 l 
145.426 122.148 l 145.375 122.152 l 144.758 122.152 l 144.758 122.66 l 154.199
 122.66 l 154.887 118.438 l 154.473 118.438 l 154.07 120.957 153.691 122.152
 150.879 122.152 c 148.707 122.152 l 147.934 122.152 147.898 122.039 147.898
 121.5 c 147.898 117.129 l 149.371 117.129 l 150.961 117.129 151.141 117.652
 151.141 119.043 c 151.547 119.043 l 151.547 114.707 l 151.141 114.707 l
 151.141 116.117 150.961 116.621 149.371 116.621 c 147.898 116.621 l 147.898
 112.699 l 147.898 112.16 147.934 112.043 148.707 112.043 c 150.812 112.043
 l 153.316 112.043 153.758 112.945 154.02 115.215 c 154.43 115.215 l 153.969
 111.539 l 144.758 111.539 l 144.758 112.043 l 145.152 112.043 l 146.41 
112.043 146.445 112.223 146.445 112.809 c h
146.445 121.383 m f*
0.75 w
q 1 0 0 1 0 0 cm
453.543 182.836 m 467.715 182.836 l S Q
q 1 0 0 1 0 0 cm
474.805 182.836 m 488.977 182.836 l S Q
q 1 0 0 1 0 0 cm
496.062 182.836 m 510.234 182.836 l S Q
0.732317 w
q 1 0 0 1 0 0 cm
481.891 175.746 m 481.891 189.922 l S Q
481.004 177.156 m 481.887 174.758 l 482.77 177.156 l 482.246 176.773 481.535
 176.777 481.004 177.156 c h
481.004 177.156 m f*
0.137309 w
1 j
q 0 1 -1 0 0 0 cm
177.156 -481.004 m 174.758 -481.887 l 177.156 -482.77 l 176.773 -482.246
 176.777 -481.535 177.156 -481.004 c h
177.156 -481.004 m S Q
0.732317 w
0 j
q 1 0 0 1 0 0 cm
460.629 175.746 m 460.629 189.922 l S Q
459.742 177.156 m 460.625 174.758 l 461.508 177.156 l 460.988 176.773 460.273
 176.777 459.742 177.156 c h
459.742 177.156 m f*
0.137309 w
1 j
q 0 1 -1 0 0 0 cm
177.156 -459.742 m 174.758 -460.625 l 177.156 -461.508 l 176.773 -460.988
 176.777 -460.273 177.156 -459.742 c h
177.156 -459.742 m S Q
0.75 w
0 j
q 1 0 0 1 0 0 cm
276.379 126.141 m 290.551 126.141 l S Q
q 1 0 0 1 0 0 cm
304.723 126.141 m 318.898 126.141 l S Q
1 0 0 rg
0.732317 w
q 1 0 0 1 0 0 cm
311.812 119.055 m 311.812 133.227 l S Q
310.926 120.465 m 311.809 118.066 l 312.691 120.465 l 312.168 120.082 311.457
 120.082 310.926 120.465 c h
310.926 120.465 m f*
0.137309 w
1 j
q 0 1 -1 0 0 0 cm
120.465 -310.926 m 118.066 -311.809 l 120.465 -312.691 l 120.082 -312.168
 120.082 -311.457 120.465 -310.926 c h
120.465 -310.926 m S Q
0 g
0.75 w
0 j
q 1 0 0 1 0 0 cm
375.59 182.836 m 389.766 182.836 l S Q
q 1 0 0 1 0 0 cm
396.852 182.836 m 411.023 182.836 l S Q
q 1 0 0 1 0 0 cm
418.109 182.836 m 432.285 182.836 l S Q
0.732317 w
q 1 0 0 1 0 0 cm
403.938 175.746 m 403.938 189.922 l S Q
403.051 177.156 m 403.934 174.758 l 404.816 177.156 l 404.297 176.773 403.582
 176.777 403.051 177.156 c h
403.051 177.156 m f*
0.137309 w
1 j
q 0 1 -1 0 0 0 cm
177.156 -403.051 m 174.758 -403.934 l 177.156 -404.816 l 176.773 -404.297
 176.777 -403.582 177.156 -403.051 c h
177.156 -403.051 m S Q
0.732317 w
0 j
q 1 0 0 1 0 0 cm
382.676 175.746 m 382.676 189.922 l S Q
381.789 177.156 m 382.672 174.758 l 383.555 177.156 l 383.035 176.773 382.32
 176.777 381.789 177.156 c h
381.789 177.156 m f*
0.137309 w
1 j
q 0 1 -1 0 0 0 cm
177.156 -381.789 m 174.758 -382.672 l 177.156 -383.555 l 176.773 -383.035
 176.777 -382.32 177.156 -381.789 c h
177.156 -381.789 m S Q
0.75 w
0 j
q 1 0 0 1 0 0 cm
382.676 147.402 m 396.852 147.402 l S Q
q 1 0 0 1 0 0 cm
411.023 147.402 m 425.195 147.402 l S Q
0.732317 w
q 1 0 0 1 0 0 cm
425.195 175.746 m 425.195 189.922 l S Q
424.312 177.156 m 425.191 174.758 l 426.074 177.156 l 425.555 176.773 424.844
 176.777 424.312 177.156 c h
424.312 177.156 m f*
0.137309 w
1 j
q 0 1 -1 0 0 0 cm
177.156 -424.312 m 174.758 -425.191 l 177.156 -426.074 l 176.773 -425.555
 176.777 -424.844 177.156 -424.312 c h
177.156 -424.312 m S Q
1 0 0 rg
0.708661 w
0 j
q 1 0 0 1 0 0 cm
429.809 181.402 m 429.809 181.402 433.91 174.258 433.91 167.305 c 433.91
 160.352 425.117 152.348 425.117 152.348 c S Q
426.703 156.113 m 424.418 151.723 l 429.004 153.586 l 427.777 153.832 426.852
 154.855 426.703 156.113 c h
426.703 156.113 m f*
0.196549 w
1 j
q 1 0.909997 -0.909997 1 0 0 cm
311.125 -127.009 m 307.689 -128.274 l 311.125 -129.537 l 310.577 -128.792
 310.58 -127.771 311.125 -127.009 c h
311.125 -127.009 m S Q
0 1 0 rg
0.460208 w
0 j
q -1 -0.93239 -0.93239 1 0 0 cm
-311.897 -115.892 m -311.897 -115.892 -308.307 -119.482 -304.717 -115.892
 c -301.126 -112.302 -297.537 -115.893 -297.537 -115.893 c S Q
q -1 -0.93239 -0.93239 1 0 0 cm
-297.537 -115.893 m -297.537 -115.893 -293.947 -119.483 -290.356 -115.893
 c -286.766 -112.303 -283.176 -115.894 -283.176 -115.894 c S Q
q -1 -0.93239 -0.93239 1 0 0 cm
-283.176 -115.894 m -283.176 -115.894 -279.584 -119.482 -275.994 -115.892
 c -272.405 -112.301 -268.814 -115.893 -268.814 -115.893 c S Q
q -1 -0.93239 -0.93239 1 0 0 cm
-268.814 -115.893 m -268.814 -115.893 -265.224 -119.483 -261.635 -115.891
 c -258.045 -112.302 -254.455 -115.892 -254.455 -115.892 c S Q
421.84 177.387 m 420.117 176.383 l 418.391 175.383 l 420.121 174.391 l 
421.852 173.395 l 421.848 175.391 l h
421.84 177.387 m f
0.0799041 w
q 1 -0.574236 0.574236 1 0 0 cm
240.631 315.566 m 239.769 314.067 l 238.902 312.569 l 240.632 312.57 l 
242.364 312.568 l 241.499 314.068 l h
240.631 315.566 m S Q
383.227 128.688 m 383.293 128.855 l 383.359 129.027 l 383.488 129.379 l
 383.621 129.742 l 383.754 130.113 l 383.887 130.48 l 384.016 130.848 l 
384.203 131.387 l 384.266 131.559 l 384.324 131.723 l 384.383 131.891 l 
384.438 132.047 l 384.492 132.199 l 384.547 132.348 l 384.598 132.488 l 
384.648 132.617 l 384.695 132.742 l 384.738 132.859 l 384.781 132.969 l 
384.824 133.062 l 384.863 133.152 l 384.898 133.23 l 384.93 133.297 l 384.961
 133.352 l 384.984 133.391 l 385.254 133.758 385.422 133.758 385.875 133.758
 c 386.238 133.758 l 386.406 133.742 386.426 133.641 386.426 133.59 c 386.426
 133.543 386.391 133.508 386.34 133.438 c 386.176 133.254 386.07 133.008
 385.957 132.672 c 382.547 123.156 l 382.195 122.184 381.285 121.965 380.504
 121.965 c 380.422 121.965 380.199 121.965 380.199 122.148 c 380.199 122.285
 380.336 122.316 380.352 122.316 c 380.902 122.418 381.02 122.516 381.438
 123.652 c 383.059 128.203 l 378.441 132.789 l 378.246 132.988 378.145 133.09
 378.145 133.305 c 378.145 133.59 378.379 133.789 378.648 133.789 c 378.918
 133.789 379.059 133.605 379.199 133.438 c h
383.227 128.688 m f*
Q Q
showpage
%%Trailer
end
%%EOF
