%!PS-Adobe-3.0 EPSF-3.0
%%Creator: cairo 1.15.10 (http://cairographics.org)
%%CreationDate: Mon May 11 22:37:17 2020
%%Pages: 1
%%DocumentData: Clean7Bit
%%LanguageLevel: 2
%%BoundingBox: 106 540 267 724
%%EndComments
%%BeginProlog
50 dict begin
/q { gsave } bind def
/Q { grestore } bind def
/cm { 6 array astore concat } bind def
/w { setlinewidth } bind def
/J { setlinecap } bind def
/j { setlinejoin } bind def
/M { setmiterlimit } bind def
/d { setdash } bind def
/m { moveto } bind def
/l { lineto } bind def
/c { curveto } bind def
/h { closepath } bind def
/re { exch dup neg 3 1 roll 5 3 roll moveto 0 rlineto
      0 exch rlineto 0 rlineto closepath } bind def
/S { stroke } bind def
/f { fill } bind def
/f* { eofill } bind def
/n { newpath } bind def
/W { clip } bind def
/W* { eoclip } bind def
/BT { } bind def
/ET { } bind def
/BDC { mark 3 1 roll /BDC pdfmark } bind def
/EMC { mark /EMC pdfmark } bind def
/cairo_store_point { /cairo_point_y exch def /cairo_point_x exch def } def
/Tj { show currentpoint cairo_store_point } bind def
/TJ {
  {
    dup
    type /stringtype eq
    { show } { -0.001 mul 0 cairo_font_matrix dtransform rmoveto } ifelse
  } forall
  currentpoint cairo_store_point
} bind def
/cairo_selectfont { cairo_font_matrix aload pop pop pop 0 0 6 array astore
    cairo_font exch selectfont cairo_point_x cairo_point_y moveto } bind def
/Tf { pop /cairo_font exch def /cairo_font_matrix where
      { pop cairo_selectfont } if } bind def
/Td { matrix translate cairo_font_matrix matrix concatmatrix dup
      /cairo_font_matrix exch def dup 4 get exch 5 get cairo_store_point
      /cairo_font where { pop cairo_selectfont } if } bind def
/Tm { 2 copy 8 2 roll 6 array astore /cairo_font_matrix exch def
      cairo_store_point /cairo_font where { pop cairo_selectfont } if } bind def
/g { setgray } bind def
/rg { setrgbcolor } bind def
/d1 { setcachedevice } bind def
/cairo_data_source {
  CairoDataIndex CairoData length lt
    { CairoData CairoDataIndex get /CairoDataIndex CairoDataIndex 1 add def }
    { () } ifelse
} def
/cairo_flush_ascii85_file { cairo_ascii85_file status { cairo_ascii85_file flushfile } if } def
/cairo_image { image cairo_flush_ascii85_file } def
/cairo_imagemask { imagemask cairo_flush_ascii85_file } def
%%EndProlog
%%BeginSetup
%%EndSetup
%%Page: 1 1
%%BeginPageSetup
%%PageBoundingBox: 106 540 267 724
%%EndPageSetup
q 106 540 161 184 rectclip
1 0 0 -1 0 842 cm q
0 g
186.754 199.723 m 186.754 199.453 l 186.762 199.324 l 186.773 199.195 l
 186.789 198.977 l 186.805 198.863 l 186.832 198.77 l 186.855 198.668 l 
186.891 198.582 l 186.926 198.5 l 186.977 198.422 l 187.027 198.348 l 187.094
 198.277 l 187.164 198.211 l 187.238 198.148 l 187.332 198.098 l 187.434
 198.047 l 187.484 198.023 l 187.547 197.996 l 187.605 197.98 l 187.664 
197.953 l 187.734 197.938 l 187.801 197.922 l 187.867 197.902 l 188.023 
197.871 l 188.105 197.852 l 188.191 197.836 l 188.277 197.828 l 188.371 
197.82 l 188.473 197.801 l 188.566 197.793 l 188.676 197.785 l 188.777 197.777
 l 188.891 197.766 l 189.008 197.758 l 189.129 197.75 l 189.246 197.75 l
 189.383 197.742 l 189.512 197.742 l 189.645 197.734 l 191.34 197.734 l 
191.34 196.414 l 189.852 196.551 186.508 196.551 184.895 196.551 c 183.25
 196.551 179.902 196.551 178.414 196.414 c 178.414 197.734 l 179.52 197.734
 l 182.859 197.734 182.996 198.191 182.996 199.723 c 182.996 222.047 l 182.996
 223.578 182.859 224.035 179.52 224.035 c 178.414 224.035 l 178.414 225.355
 l 179.902 225.219 183.25 225.219 184.859 225.219 c 186.508 225.219 189.852
 225.219 191.34 225.355 c 191.34 224.035 l 190.242 224.035 l 186.891 224.035
 186.754 223.578 186.754 222.047 c h
186.754 199.723 m f*
1.700787 w
0 J
0 j
[] 0.0 d
4 M q 1 0 0 1 0 0 cm
184.859 150.969 m 184.859 193.488 l S Q
q 1 0 0 1 0 0 cm
184.859 226.629 m 184.859 269.148 l S Q
194.273 217.773 m 202.777 223.441 227.027 242.34 235.531 248.008 c 235.531
 248.008 236.793 246.121 236.793 246.121 c 236.793 246.121 238.051 244.23
 238.051 244.23 c 229.547 238.562 202.777 223.441 194.273 217.773 c h
194.273 217.773 m f
195.086 205.961 m 203.59 200.289 230.359 185.172 238.863 179.5 c 238.863
 179.5 237.605 177.613 237.605 177.613 c 237.605 177.613 236.344 175.727
 236.344 175.727 c 227.84 181.395 203.59 200.289 195.086 205.961 c h
195.086 205.961 m f
1 g
222.398 177.281 m 228.191 173.355 l 244.086 196.824 l 238.293 200.75 l 
h
222.398 177.281 m f
212.695 182.883 m 218.488 178.957 l 234.387 202.43 l 228.594 206.352 l 
h
212.695 182.883 m f
202.586 189.176 m 208.379 185.254 l 224.277 208.723 l 218.484 212.645 l
 h
202.586 189.176 m f
0 g
q 1 0 0 1 0 0 cm
173.738 211.879 m 131.219 211.879 l S Q
197.703 290.285 m 196.641 290.285 l 196.176 294.621 195.578 299.902 188.121
 299.902 c 184.66 299.902 l 182.66 299.902 182.566 299.613 182.566 298.219
 c 182.566 275.633 l 182.566 274.195 182.566 273.598 186.598 273.598 c 188
 273.598 l 188 272.281 l 186.48 272.418 182.617 272.418 180.883 272.418 
c 179.234 272.418 175.926 272.418 174.438 272.281 c 174.438 273.598 l 175.457
 273.598 l 178.715 273.598 178.809 274.059 178.809 275.59 c 178.809 297.91
 l 178.809 299.441 178.715 299.902 175.457 299.902 c 174.438 299.902 l 174.438
 301.219 l 196.504 301.219 l h
197.703 290.285 m f*
266.309 256.352 m 265.246 256.352 l 264.777 260.688 264.184 265.969 256.727
 265.969 c 253.266 265.969 l 251.266 265.969 251.172 265.68 251.172 264.285
 c 251.172 241.699 l 251.172 240.262 251.172 239.668 255.203 239.668 c 256.605
 239.668 l 256.605 238.348 l 255.086 238.484 251.223 238.484 249.488 238.484
 c 247.84 238.484 244.531 238.484 243.043 238.348 c 243.043 239.668 l 244.062
 239.668 l 247.32 239.668 247.414 240.125 247.414 241.656 c 247.414 263.98
 l 247.414 265.508 247.32 265.969 244.062 265.969 c 243.043 265.969 l 243.043
 267.285 l 265.109 267.285 l h
266.309 256.352 m f*
266.309 171.438 m 265.246 171.438 l 264.777 175.777 264.184 181.059 256.727
 181.059 c 253.266 181.059 l 251.266 181.059 251.172 180.77 251.172 179.375
 c 251.172 156.785 l 251.172 155.352 251.172 154.754 255.203 154.754 c 256.605
 154.754 l 256.605 153.438 l 255.086 153.574 251.223 153.574 249.488 153.574
 c 247.84 153.574 244.531 153.574 243.043 153.438 c 243.043 154.754 l 244.062
 154.754 l 247.32 154.754 247.414 155.215 247.414 156.746 c 247.414 179.066
 l 247.414 180.598 247.32 181.059 244.062 181.059 c 243.043 181.059 l 243.043
 182.375 l 265.109 182.375 l h
266.309 171.438 m f*
200.434 136.465 m 199.367 136.465 l 198.902 140.801 198.305 146.082 190.848
 146.082 c 187.387 146.082 l 185.387 146.082 185.297 145.793 185.297 144.398
 c 185.297 121.812 l 185.297 120.375 185.297 119.781 189.324 119.781 c 190.73
 119.781 l 190.73 118.461 l 189.207 118.598 185.348 118.598 183.613 118.598
 c 181.961 118.598 178.652 118.598 177.164 118.461 c 177.164 119.781 l 178.188
 119.781 l 181.441 119.781 181.535 120.238 181.535 121.77 c 181.535 144.094
 l 181.535 145.625 181.441 146.082 178.188 146.082 c 177.164 146.082 l 177.164
 147.402 l 199.234 147.402 l h
200.434 136.465 m f*
129.566 215.738 m 128.504 215.738 l 128.035 220.074 127.441 225.355 119.98
 225.355 c 116.52 225.355 l 114.523 225.355 114.43 225.066 114.43 223.672
 c 114.43 201.086 l 114.43 199.648 114.43 199.051 118.461 199.051 c 119.863
 199.051 l 119.863 197.734 l 118.34 197.871 114.48 197.871 112.746 197.871
 c 111.094 197.871 107.789 197.871 106.301 197.734 c 106.301 199.051 l 107.32
 199.051 l 110.578 199.051 110.672 199.512 110.672 201.043 c 110.672 223.363
 l 110.672 224.895 110.578 225.355 107.32 225.355 c 106.301 225.355 l 106.301
 226.672 l 128.367 226.672 l h
129.566 215.738 m f*
Q Q
showpage
%%Trailer
end
%%EOF
