%!PS-Adobe-3.0 EPSF-3.0
%%Creator: cairo 1.15.10 (http://cairographics.org)
%%CreationDate: Mon May 11 22:39:07 2020
%%Pages: 1
%%DocumentData: Clean7Bit
%%LanguageLevel: 2
%%BoundingBox: 162 448 357 631
%%EndComments
%%BeginProlog
50 dict begin
/q { gsave } bind def
/Q { grestore } bind def
/cm { 6 array astore concat } bind def
/w { setlinewidth } bind def
/J { setlinecap } bind def
/j { setlinejoin } bind def
/M { setmiterlimit } bind def
/d { setdash } bind def
/m { moveto } bind def
/l { lineto } bind def
/c { curveto } bind def
/h { closepath } bind def
/re { exch dup neg 3 1 roll 5 3 roll moveto 0 rlineto
      0 exch rlineto 0 rlineto closepath } bind def
/S { stroke } bind def
/f { fill } bind def
/f* { eofill } bind def
/n { newpath } bind def
/W { clip } bind def
/W* { eoclip } bind def
/BT { } bind def
/ET { } bind def
/BDC { mark 3 1 roll /BDC pdfmark } bind def
/EMC { mark /EMC pdfmark } bind def
/cairo_store_point { /cairo_point_y exch def /cairo_point_x exch def } def
/Tj { show currentpoint cairo_store_point } bind def
/TJ {
  {
    dup
    type /stringtype eq
    { show } { -0.001 mul 0 cairo_font_matrix dtransform rmoveto } ifelse
  } forall
  currentpoint cairo_store_point
} bind def
/cairo_selectfont { cairo_font_matrix aload pop pop pop 0 0 6 array astore
    cairo_font exch selectfont cairo_point_x cairo_point_y moveto } bind def
/Tf { pop /cairo_font exch def /cairo_font_matrix where
      { pop cairo_selectfont } if } bind def
/Td { matrix translate cairo_font_matrix matrix concatmatrix dup
      /cairo_font_matrix exch def dup 4 get exch 5 get cairo_store_point
      /cairo_font where { pop cairo_selectfont } if } bind def
/Tm { 2 copy 8 2 roll 6 array astore /cairo_font_matrix exch def
      cairo_store_point /cairo_font where { pop cairo_selectfont } if } bind def
/g { setgray } bind def
/rg { setrgbcolor } bind def
/d1 { setcachedevice } bind def
/cairo_data_source {
  CairoDataIndex CairoData length lt
    { CairoData CairoDataIndex get /CairoDataIndex CairoDataIndex 1 add def }
    { () } ifelse
} def
/cairo_flush_ascii85_file { cairo_ascii85_file status { cairo_ascii85_file flushfile } if } def
/cairo_image { image cairo_flush_ascii85_file } def
/cairo_imagemask { imagemask cairo_flush_ascii85_file } def
%%EndProlog
%%BeginSetup
%%EndSetup
%%Page: 1 1
%%BeginPageSetup
%%PageBoundingBox: 162 448 357 631
%%EndPageSetup
q 162 448 195 183 rectclip
1 0 0 -1 0 842 cm q
0 g
275.949 292.344 m 275.949 292.07 l 275.957 291.945 l 275.965 291.816 l 
275.973 291.707 l 275.98 291.594 l 276 291.484 l 276.023 291.391 l 276.051
 291.289 l 276.082 291.203 l 276.117 291.117 l 276.168 291.043 l 276.219
 290.965 l 276.289 290.898 l 276.355 290.828 l 276.434 290.77 l 276.527 
290.719 l 276.629 290.668 l 276.68 290.641 l 276.738 290.617 l 276.797 290.602
 l 276.859 290.574 l 276.926 290.559 l 276.992 290.539 l 277.062 290.523
 l 277.137 290.508 l 277.215 290.488 l 277.387 290.457 l 277.469 290.445
 l 277.562 290.438 l 277.664 290.422 l 277.758 290.414 l 277.871 290.402
 l 277.973 290.395 l 278.082 290.387 l 278.203 290.379 l 278.32 290.371 
l 278.438 290.371 l 278.574 290.363 l 278.703 290.363 l 278.84 290.352 l
 280.531 290.352 l 280.531 289.035 l 279.043 289.172 275.699 289.172 274.086
 289.172 c 272.445 289.172 269.094 289.172 267.605 289.035 c 267.605 290.352
 l 268.711 290.352 l 272.055 290.352 272.188 290.812 272.188 292.344 c 272.188
 314.668 l 272.188 316.195 272.055 316.656 268.711 316.656 c 267.605 316.656
 l 267.605 317.973 l 269.094 317.84 272.445 317.84 274.051 317.84 c 275.699
 317.84 279.043 317.84 280.531 317.973 c 280.531 316.656 l 279.434 316.656
 l 276.082 316.656 275.949 316.195 275.949 314.668 c h
275.949 292.344 m f*
1 0 0 rg
355.504 246.066 m 332.234 246.066 l 332.234 247.375 l 333.258 247.375 l
 336.512 247.375 336.605 247.844 336.605 249.355 c 336.605 271.559 l 336.605
 273.09 336.512 273.551 333.258 273.551 c 332.234 273.551 l 332.234 274.867
 l 333.723 274.73 337.031 274.73 338.684 274.73 c 340.418 274.73 344.277
 274.73 345.801 274.867 c 345.801 273.551 l 344.395 273.551 l 340.367 273.551
 340.367 273.004 340.367 271.516 c 340.367 261.098 l 344.023 261.098 l 348.086
 261.098 348.512 262.461 348.512 266.059 c 349.559 266.059 l 349.559 254.832
 l 348.512 254.832 l 348.512 258.395 348.086 259.789 344.023 259.789 c 340.367
 259.789 l 340.367 249.066 l 340.367 247.672 340.461 247.375 342.457 247.375
 c 347.527 247.375 l 353.895 247.375 354.941 249.738 355.621 255.59 c 356.684
 255.59 l h
355.504 246.066 m f*
288.504 211.34 m 265.238 211.34 l 265.238 212.648 l 266.258 212.648 l 269.516
 212.648 269.609 213.117 269.609 214.633 c 269.609 236.836 l 269.609 238.367
 269.516 238.824 266.258 238.824 c 265.238 238.824 l 265.238 240.145 l 266.727
 240.008 270.031 240.008 271.684 240.008 c 273.418 240.008 277.277 240.008
 278.801 240.145 c 278.801 238.824 l 277.398 238.824 l 273.367 238.824 273.367
 238.281 273.367 236.793 c 273.367 226.375 l 277.023 226.375 l 281.09 226.375
 281.512 227.734 281.512 231.332 c 282.559 231.332 l 282.559 220.109 l 281.512
 220.109 l 281.512 223.672 281.09 225.066 277.023 225.066 c 273.367 225.066
 l 273.367 214.344 l 273.367 212.949 273.461 212.648 275.457 212.648 c 280.527
 212.648 l 286.898 212.648 287.941 215.016 288.621 220.863 c 289.688 220.863
 l h
288.504 211.34 m f*
286.898 364.91 m 263.629 364.91 l 263.629 366.219 l 264.652 366.219 l 267.91
 366.219 268 366.688 268 368.199 c 268 390.402 l 268 391.934 267.91 392.395
 264.652 392.395 c 263.629 392.395 l 263.629 393.711 l 265.117 393.574 268.426
 393.574 270.078 393.574 c 271.812 393.574 275.672 393.574 277.195 393.711
 c 277.195 392.395 l 275.793 392.395 l 271.762 392.395 271.762 391.852 271.762
 390.363 c 271.762 379.945 l 275.418 379.945 l 279.48 379.945 279.906 381.305
 279.906 384.902 c 280.953 384.902 l 280.953 373.676 l 279.906 373.676 l
 279.906 377.238 279.48 378.633 275.418 378.633 c 271.762 378.633 l 271.762
 367.91 l 271.762 366.516 271.855 366.219 273.852 366.219 c 278.922 366.219
 l 285.289 366.219 286.336 368.582 287.016 374.434 c 288.078 374.434 l h
286.898 364.91 m f*
355.504 331.105 m 332.234 331.105 l 332.234 332.414 l 333.258 332.414 l
 336.512 332.414 336.605 332.883 336.605 334.395 c 336.605 356.598 l 336.605
 358.129 336.512 358.59 333.258 358.59 c 332.234 358.59 l 332.234 359.906
 l 333.723 359.77 337.031 359.77 338.684 359.77 c 340.418 359.77 344.277
 359.77 345.801 359.906 c 345.801 358.59 l 344.395 358.59 l 340.367 358.59
 340.367 358.043 340.367 356.555 c 340.367 346.141 l 344.023 346.141 l 348.086
 346.141 348.512 347.5 348.512 351.098 c 349.559 351.098 l 349.559 339.871
 l 348.512 339.871 l 348.512 343.434 348.086 344.828 344.023 344.828 c 340.367
 344.828 l 340.367 334.105 l 340.367 332.711 340.461 332.414 342.457 332.414
 c 347.527 332.414 l 353.895 332.414 354.941 334.777 355.621 340.629 c 356.684
 340.629 l h
355.504 331.105 m f*
1 g
255.324 303.617 m 242.883 316.203 226.621 324.961 209.262 328.422 c 199.457
 330.379 188.953 330.602 179.797 326.59 c 175.219 324.586 171.062 321.52
 168.047 317.535 c 165.031 313.547 163.199 308.617 163.199 303.617 c 163.199
 298.621 165.031 293.691 168.047 289.703 c 171.062 285.719 175.219 282.652
 179.797 280.648 c 188.953 276.637 199.457 276.859 209.262 278.816 c 226.621
 282.277 242.883 291.035 255.324 303.617 c h
255.324 303.617 m f
0 g
1.700787 w
0 J
0 j
[] 0.0 d
4 M q 1 0 0 1 0 0 cm
255.324 303.617 m 242.883 316.203 226.621 324.961 209.262 328.422 c 199.457
 330.379 188.953 330.602 179.797 326.59 c 175.219 324.586 171.062 321.52
 168.047 317.535 c 165.031 313.547 163.199 308.617 163.199 303.617 c 163.199
 298.621 165.031 293.691 168.047 289.703 c 171.062 285.719 175.219 282.652
 179.797 280.648 c 188.953 276.637 199.457 276.859 209.262 278.816 c 226.621
 282.277 242.883 291.035 255.324 303.617 c h
255.324 303.617 m S Q
189.906 303.652 m 189.906 306.262 187.793 308.375 185.188 308.375 c 182.582
 308.375 180.469 306.262 180.469 303.652 c 180.469 301.047 182.582 298.934
 185.188 298.934 c 187.793 298.934 189.906 301.047 189.906 303.652 c h
189.906 303.652 m f
1.132577 w
q 1 0 0 1 0 0 cm
189.906 303.652 m 189.906 306.262 187.793 308.375 185.188 308.375 c 182.582
 308.375 180.469 306.262 180.469 303.652 c 180.469 301.047 182.582 298.934
 185.188 298.934 c 187.793 298.934 189.906 301.047 189.906 303.652 c h
189.906 303.652 m S Q
204.887 303.543 m 204.887 306.148 202.773 308.262 200.164 308.262 c 197.559
 308.262 195.445 306.148 195.445 303.543 c 195.445 300.938 197.559 298.824
 200.164 298.824 c 202.773 298.824 204.887 300.938 204.887 303.543 c h
204.887 303.543 m f
1.132577 w
q 1 0 0 1 0 0 cm
204.887 303.543 m 204.887 306.148 202.773 308.262 200.164 308.262 c 197.559
 308.262 195.445 306.148 195.445 303.543 c 195.445 300.938 197.559 298.824
 200.164 298.824 c 202.773 298.824 204.887 300.938 204.887 303.543 c h
204.887 303.543 m S Q
1.700787 w
q 1 0 0 1 0 0 cm
274.055 243.59 m 274.055 286.109 l S Q
q 1 0 0 1 0 0 cm
274.055 319.246 m 274.055 361.766 l S Q
283.465 310.395 m 291.969 316.062 316.223 334.961 324.727 340.629 c 324.727
 340.629 325.984 338.738 325.984 338.738 c 325.984 338.738 327.242 336.852
 327.242 336.852 c 318.738 331.184 291.969 316.062 283.465 310.395 c h
283.465 310.395 m f
284.277 298.578 m 292.781 292.91 319.551 277.789 328.055 272.121 c 328.055
 272.121 326.797 270.234 326.797 270.234 c 326.797 270.234 325.539 268.344
 325.539 268.344 c 317.035 274.016 292.781 292.91 284.277 298.578 c h
284.277 298.578 m f
1 g
311.59 269.898 m 317.383 265.977 l 333.277 289.445 l 327.488 293.371 l 
h
311.59 269.898 m f
301.891 275.5 m 307.68 271.578 l 323.578 295.047 l 317.785 298.973 l h
301.891 275.5 m f
291.781 281.797 m 297.574 277.871 l 313.469 301.344 l 307.676 305.266 l
 h
291.781 281.797 m f
1 0 0 rg
288.059 283.805 m 294.719 283.805 l 295.047 283.805 295.504 283.805 295.504
 283.324 c 295.504 282.848 295.047 282.848 294.719 282.848 c 288.059 282.848
 l 288.059 276.168 l 288.059 275.84 288.059 275.383 287.582 275.383 c 287.113
 275.383 287.113 275.84 287.113 276.168 c 287.113 282.848 l 280.438 282.848
 l 280.098 282.848 279.652 282.848 279.652 283.324 c 279.652 283.805 280.098
 283.805 280.438 283.805 c 287.113 283.805 l 287.113 290.477 l 287.113 290.809
 287.113 291.266 287.582 291.266 c 288.059 291.266 288.059 290.809 288.059
 290.477 c h
288.059 283.805 m f*
Q Q
showpage
%%Trailer
end
%%EOF
